Projeto_Quartus/simulation/qsim/Projeto_Quartus.msim.vcd
$comment
	File created using the following command:
		vcd file Projeto_Quartus.msim.vcd -direction
$end
$date
	Thu Apr 16 23:02:12 2026
$end
$version
	ModelSim Version 2020.1
$end
$timescale
	1ps
$end

$scope module Projeto_Quartus_vlg_vec_tst $end
$var reg 5 ! A [4:0] $end
$var reg 5 " B [4:0] $end
$var reg 3 # S [2:0] $end
$var wire 1 $ F [5] $end
$var wire 1 % F [4] $end
$var wire 1 & F [3] $end
$var wire 1 ' F [2] $end
$var wire 1 ( F [1] $end
$var wire 1 ) F [0] $end
$var wire 1 * STATUS $end

$scope module i1 $end
$var wire 1 + gnd $end
$var wire 1 , vcc $end
$var wire 1 - unknown $end
$var tri1 1 . devclrn $end
$var tri1 1 / devpor $end
$var tri1 1 0 devoe $end
$var wire 1 1 STATUS~output_o $end
$var wire 1 2 F[5]~output_o $end
$var wire 1 3 F[4]~output_o $end
$var wire 1 4 F[3]~output_o $end
$var wire 1 5 F[2]~output_o $end
$var wire 1 6 F[1]~output_o $end
$var wire 1 7 F[0]~output_o $end
$var wire 1 8 S[2]~input_o $end
$var wire 1 9 S[0]~input_o $end
$var wire 1 : A[4]~input_o $end
$var wire 1 ; B[3]~input_o $end
$var wire 1 < B[2]~input_o $end
$var wire 1 = B[1]~input_o $end
$var wire 1 > B[0]~input_o $end
$var wire 1 ? A[0]~input_o $end
$var wire 1 @ A[1]~input_o $end
$var wire 1 A inst12|inst1~0_combout $end
$var wire 1 B A[2]~input_o $end
$var wire 1 C inst12|inst1~1_combout $end
$var wire 1 D A[3]~input_o $end
$var wire 1 E B[4]~input_o $end
$var wire 1 F inst12|inst16~0_combout $end
$var wire 1 G inst12|inst1~2_combout $end
$var wire 1 H inst|inst|inst17~0_combout $end
$var wire 1 I inst3|inst3~0_combout $end
$var wire 1 J inst3|inst3~1_combout $end
$var wire 1 K inst3|inst3~2_combout $end
$var wire 1 L inst|inst|inst17~1_combout $end
$var wire 1 M S[1]~input_o $end
$var wire 1 N inst|inst|inst17~2_combout $end
$var wire 1 O inst|inst|inst17~3_combout $end
$var wire 1 P inst|inst|inst17~4_combout $end
$var wire 1 Q inst|inst|inst17~5_combout $end
$var wire 1 R inst|inst|inst17~6_combout $end
$var wire 1 S inst|inst|inst17~7_combout $end
$var wire 1 T inst2|inst8~combout $end
$var wire 1 U inst|inst|inst9~0_combout $end
$var wire 1 V inst|inst|inst17~8_combout $end
$var wire 1 W inst4|inst17~0_combout $end
$var wire 1 X inst8|inst7|inst17~2_combout $end
$var wire 1 Y inst10|inst4~combout $end
$var wire 1 Z inst11|inst4|inst|inst3|inst~combout $end
$var wire 1 [ inst10|inst6~combout $end
$var wire 1 \ inst11|inst4|inst|inst3|inst2~combout $end
$var wire 1 ] inst11|inst4|inst|inst2|inst~combout $end
$var wire 1 ^ inst11|inst4|inst|inst2|inst2~combout $end
$var wire 1 _ inst11|inst4|inst|inst1|inst~0_combout $end
$var wire 1 ` inst11|inst4|inst|inst1|inst2~combout $end
$var wire 1 a inst12|inst23~0_combout $end
$var wire 1 b inst13|inst3|inst|inst1|inst4~0_combout $end
$var wire 1 c inst11|inst|inst2|inst3~0_combout $end
$var wire 1 d inst13|inst3|inst|inst2|inst4~0_combout $end
$var wire 1 e inst11|inst|inst3|inst3~0_combout $end
$var wire 1 f inst13|inst3|inst3|inst5~combout $end
$var wire 1 g inst13|inst3|inst|inst3|inst4~0_combout $end
$var wire 1 h inst11|inst|inst4|inst3~0_combout $end
$var wire 1 i inst13|inst3|inst|inst4|inst2~0_combout $end
$var wire 1 j inst11|inst|inst5|inst3~0_combout $end
$var wire 1 k inst11|inst|inst7|inst4~combout $end
$var wire 1 l inst13|inst4|inst|inst3|inst~combout $end
$var wire 1 m inst13|inst4|inst|inst3|inst2~combout $end
$var wire 1 n inst13|inst4|inst|inst2|inst~combout $end
$var wire 1 o inst13|inst4|inst|inst2|inst2~combout $end
$var wire 1 p inst13|inst4|inst|inst1|inst~combout $end
$var wire 1 q inst13|inst4|inst|inst1|inst2~combout $end
$var wire 1 r inst13|inst|inst2|inst3~0_combout $end
$var wire 1 s inst13|inst|inst3|inst3~0_combout $end
$var wire 1 t inst13|inst|inst4|inst3~0_combout $end
$var wire 1 u inst13|inst|inst5|inst3~0_combout $end
$var wire 1 v inst13|inst|inst7|inst4~combout $end
$var wire 1 w inst8|inst7|inst17~3_combout $end
$var wire 1 x inst8|inst7|inst17~4_combout $end
$var wire 1 y inst11|inst|inst2|inst4~combout $end
$var wire 1 z inst11|inst|inst3|inst4~0_combout $end
$var wire 1 { inst8|inst6|inst17~2_combout $end
$var wire 1 | inst11|inst|inst4|inst4~combout $end
$var wire 1 } inst8|inst6|inst17~3_combout $end
$var wire 1 ~ inst8|inst6|inst17~4_combout $end
$var wire 1 !! inst8|inst6|inst17~5_combout $end
$var wire 1 "! inst13|inst|inst2|inst4~combout $end
$var wire 1 #! inst13|inst|inst3|inst4~0_combout $end
$var wire 1 $! inst8|inst6|inst17~7_combout $end
$var wire 1 %! inst13|inst|inst4|inst4~combout $end
$var wire 1 &! inst8|inst6|inst17~6_combout $end
$var wire 1 '! inst8|inst6|inst17~8_combout $end
$var wire 1 (! inst8|inst6|inst17~9_combout $end
$var wire 1 )! inst8|inst5|inst17~0_combout $end
$var wire 1 *! inst8|inst5|inst17~1_combout $end
$var wire 1 +! inst8|inst5|inst17~2_combout $end
$var wire 1 ,! inst8|inst5|inst17~3_combout $end
$var wire 1 -! inst8|inst5|inst17~4_combout $end
$var wire 1 .! inst8|inst5|inst17~5_combout $end
$var wire 1 /! inst8|inst4|inst17~0_combout $end
$var wire 1 0! inst8|inst4|inst17~1_combout $end
$var wire 1 1! inst8|inst4|inst17~2_combout $end
$var wire 1 2! inst8|inst4|inst17~3_combout $end
$var wire 1 3! inst8|inst4|inst17~4_combout $end
$var wire 1 4! inst8|inst4|inst17~5_combout $end
$var wire 1 5! inst8|inst3|inst17~0_combout $end
$var wire 1 6! inst8|inst3|inst17~1_combout $end
$var wire 1 7! inst8|inst3|inst17~2_combout $end
$var wire 1 8! inst8|inst3|inst17~3_combout $end
$var wire 1 9! inst8|inst3|inst17~4_combout $end
$var wire 1 :! inst8|inst3|inst17~5_combout $end
$var wire 1 ;! inst8|inst3|inst17~6_combout $end
$var wire 1 <! inst8|inst3|inst17~7_combout $end
$var wire 1 =! inst8|inst|inst17~0_combout $end
$upscope $end
$upscope $end
$enddefinitions $end
#0
$dumpvars
b1010 !
b101 "
b0 #
1)
1(
1'
1&
0%
0$
0*
0+
1,
x-
1.
1/
10
01
02
03
14
15
16
17
08
09
0:
0;
1<
0=
1>
0?
1@
0A
0B
1C
1D
0E
0F
0G
0H
1I
0J
1K
1L
0M
0N
0O
0P
0Q
1R
0S
1T
1U
1V
0W
0X
1Y
0Z
1[
0\
1]
0^
0_
0`
0a
1b
0c
0d
0e
1f
1g
0h
0i
0j
0k
0l
1m
0n
0o
0p
1q
1r
0s
1t
1u
1v
0w
0x
1y
1z
0{
1|
0}
0~
0!!
0"!
1#!
0$!
0%!
0&!
0'!
0(!
1)!
0*!
1+!
1,!
1-!
1.!
1/!
10!
11!
12!
03!
14!
05!
06!
17!
08!
19!
1:!
0;!
1<!
1=!
$end
#10000
b1 #
19
0:!
0-!
0+!
0R
0L
0<!
0.!
04
06
0(
0&
#20000
b11010 !
b11110 !
b11100 !
b111 "
b11 #
b10 #
09
1M
1=
0@
1B
1:
1:!
1-!
1+!
1X
1R
1L
18!
16!
0U
15!
0q
1_
0I
1A
1d
0b
1J
0C
0v
1k
1i
0g
1F
04!
05
1S
0:!
0V
06!
0r
0J
1C
0#!
0z
1s
1e
0K
00!
1&!
0/!
1~
1!!
1}
1%!
0|
0t
09!
1*!
0)!
0'
1<!
1.!
1(!
1x
12
13
14
16
1V
1#!
0s
10!
1/!
0%!
1t
1|
0L
01!
0&!
0~
0*!
1)!
0!!
0+!
1(
1&
1%
1$
0<!
0=!
07
06
00!
1%!
0t
11!
1*!
1&!
1!!
0)!
1+!
0(
0)
1=!
17
0*!
0&!
0!!
0+!
1)
1&!
#30000
b10111 "
b11111 "
b11011 "
b11010 "
b11000 !
b11000 "
b11 #
19
0B
0>
0=
0<
1;
1E
1;!
01!
0-!
0X
0R
1Q
1H
02!
0f
0d
1O
07!
16!
0[
0T
0A
08!
05!
0_
0m
0]
1l
1!!
0}
1v
0u
0k
1j
0F
0=!
1W
0(!
0x
02
03
11
07
0S
1g
0#!
0e
1P
18!
0,!
1\
0;!
19!
10!
0/!
0C
06!
0y
0v
1k
1G
0)
1*
0%
0$
0.!
04
0V
0%!
0|
1t
1h
00!
1$!
1S
11!
0G
09!
1{
0&!
1~
0H
0&
1&!
0~
0!!
1u
1}
01!
1V
1H
0W
01
0&!
1v
1~
0*
1W
11
1*
#40000
b111 #
b1000 !
b101 #
b1000 "
b0 "
b1 "
b100 #
1>
0;
0E
0:
09
0M
18
17!
0$!
0{
1q
1o
1[
1T
0Q
1A
0l
0\
0O
1K
1!!
0}
0H
0i
0S
1N
1,!
1&!
1)!
1"!
1#!
1m
19!
1/!
1C
1%!
0t
1|
0h
0P
1L
0N
0!!
1}
0j
1+!
10!
0%!
1t
11!
1*!
0&!
1!!
0u
0~
0}
1N
0V
09!
0k
1&!
0!!
1u
0v
1V
0/!
0W
01
0*!
1v
00!
01!
0*
1W
11
10!
0&!
1*
#50000
b101 #
19
1;!
11!
1-!
0+!
1R
0L
0N
0V
0W
01
0*
#60000
b101 "
b1100 !
b111 "
b11100 !
b111 #
b1111 "
b110 #
09
1M
1B
1:
1=
1<
1;
0;!
01!
1+!
0R
1L
1S
12!
1f
1d
1O
0v
1k
1i
1F
15!
0q
0o
1_
0m
1]
1Z
0K
1G
1.!
14
0S
1V
13!
0g
1e
00!
1&!
1/!
1~
1!!
1}
19!
1*!
0)!
0G
16!
0"!
1y
1%!
0t
0|
1h
0L
1&
0V
0%!
11!
0&!
0~
0+!
09!
0*!
0!!
1)!
0}
1j
1=!
14!
15
17
1*!
1&!
1+!
1~
19!
0)!
0k
1)
1'
0=!
07
0+!
0/!
0~
0)
01!
#70000
b11111 "
b11101 "
b1100 !
b111 #
19
0:
0=
1E
1;!
1:!
03!
0-!
1+!
1R
0i
1g
05!
1`
0_
1!!
1}
0u
1n
1l
0]
0Z
1S
0!!
0}
1t
06!
0&!
1~
0*!
1v
0#!
1s
1z
0e
1<!
04!
0.!
04
05
16
1V
0~
1!!
0:!
0+!
0;!
1%!
1/!
1|
0h
1(
0'
0&
1&!
1*!
1)!
1}
0j
1=!
0<!
06
17
1+!
1~
09!
0)!
1k
1)
0(
0/!
0~
#80000
b100 !
b11 #
b11100 "
b11000 "
b0 !
b1 #
b10000 "
b0 "
b0 #
0>
0<
0;
0E
09
0M
08
0B
0D
07!
02!
1$!
0`
0[
0Y
0T
0R
0A
13!
0n
1m
1-!
0l
0!!
0}
0v
1u
0k
0F
0+!
08!
1U
0S
0f
0d
0g
1.!
14
03!
0y
0,!
0m
1!!
0u
19!
1/!
0V
0C
0s
0%!
1v
1)!
1P
1G
0z
0|
1&
0.!
04
09!
0/!
1{
0-!
0t
0*!
0v
1:!
11!
0G
1+!
0)!
0&
0=!
07
0:!
01!
0!!
0+!
0)
1.!
1<!
14!
15
16
14
0&!
1&
1(
1'
0<!
04!
0.!
04
05
06
0(
0'
0&
#490000
b1 #
19
1w
1Q
1x
12
1$
#500000
b11 #
b10 #
09
1M
0w
1X
0Q
18!
0U
1S
0S
1V
0x
02
0V
0$
1=!
17
1)
0=!
07
0)
#510000
b11 #
19
0X
1Q
1S
1V
1W
11
1*
#520000
b111 #
b101 #
b100 #
09
0M
18
0Q
0S
17!
0V
0W
01
0*
#530000
b101 #
19
#540000
b111 #
b110 #
09
1M
#550000
b111 #
19
#560000
b11 #
b1 #
b0 #
09
0M
08
08!
1U
07!
#570000
b1 #
19
1w
1Q
1x
12
1$
#580000
b11 #
b10 #
09
1M
0w
1X
0Q
18!
0U
1S
0S
1V
0x
02
0V
0$
1=!
17
1)
0=!
07
0)
#590000
b11 #
19
0X
1Q
1S
1V
1W
11
1*
#600000
b111 #
b101 #
b100 #
09
0M
18
0Q
0S
17!
0V
0W
01
0*
#610000
b101 #
19
#620000
b111 #
b110 #
09
1M
#630000
b111 #
19
#640000
b11 #
b1 #
b0 #
09
0M
08
08!
1U
07!
#650000
b1 #
19
1w
1Q
1x
12
1$
#660000
b11 #
b10 #
09
1M
0w
1X
0Q
18!
0U
1S
0S
1V
0x
02
0V
0$
1=!
17
1)
0=!
07
0)
#670000
b11 #
19
0X
1Q
1S
1V
1W
11
1*
#680000
b111 #
b101 #
b100 #
09
0M
18
0Q
0S
17!
0V
0W
01
0*
#690000
b101 #
19
#700000
b111 #
b110 #
09
1M
#710000
b111 #
19
#720000
b11 #
b1 #
b0 #
09
0M
08
08!
1U
07!
#730000
b1 #
19
1w
1Q
1x
12
1$
#740000
b11 #
b10 #
09
1M
0w
1X
0Q
18!
0U
1S
0S
1V
0x
02
0V
0$
1=!
17
1)
0=!
07
0)
#750000
b11 #
19
0X
1Q
1S
1V
1W
11
1*
#760000
b111 #
b101 #
b100 #
09
0M
18
0Q
0S
17!
0V
0W
01
0*
#770000
b101 #
19
#780000
b111 #
b110 #
09
1M
#790000
b111 #
19
#800000
b11 #
b1 #
b0 #
09
0M
08
08!
1U
07!
#810000
b1 #
19
1w
1Q
1x
12
1$
#820000
b11 #
b10 #
09
1M
0w
1X
0Q
18!
0U
1S
0S
1V
0x
02
0V
0$
1=!
17
1)
0=!
07
0)
#830000
b11 #
19
0X
1Q
1S
1V
1W
11
1*
#840000
b111 #
b101 #
b100 #
09
0M
18
0Q
0S
17!
0V
0W
01
0*
#850000
b101 #
19
#860000
b111 #
b110 #
09
1M
#870000
b111 #
19
#880000
b11 #
b1 #
b0 #
09
0M
08
08!
1U
07!
#890000
b1 #
19
1w
1Q
1x
12
1$
#900000
b11 #
b10 #
09
1M
0w
1X
0Q
18!
0U
1S
0S
1V
0x
02
0V
0$
1=!
17
1)
0=!
07
0)
#910000
b11 #
19
0X
1Q
1S
1V
1W
11
1*
#920000
b111 #
b101 #
b100 #
09
0M
18
0Q
0S
17!
0V
0W
01
0*
#930000
b101 #
19
#940000
b111 #
b110 #
09
1M
#950000
b111 #
19
#960000
b11 #
b1 #
b0 #
09
0M
08
08!
1U
07!
#970000
b1 #
19
1w
1Q
1x
12
1$
#980000
b11 #
b10 #
09
1M
0w
1X
0Q
18!
0U
1S
0S
1V
0x
02
0V
0$
1=!
17
1)
0=!
07
0)
#990000
b11 #
19
0X
1Q
1S
1V
1W
11
1*
