Projeto_Quartus/simulation/qsim/Projeto_Quartus.msim.vcd
$comment
	File created using the following command:
		vcd file Projeto_Quartus.msim.vcd -direction
$end
$date
	Fri Apr 17 16:06:16 2026
$end
$version
	ModelSim Version 2020.1
$end
$timescale
	1ps
$end

$scope module Analisador_7seg_vlg_vec_tst $end
$var reg 6 ! In [5:0] $end
$var wire 1 " SAIDA [3] $end
$var wire 1 # SAIDA [2] $end
$var wire 1 $ SAIDA [1] $end
$var wire 1 % SAIDA [0] $end
$var wire 1 & SAIDA_UNIDADE [3] $end
$var wire 1 ' SAIDA_UNIDADE [2] $end
$var wire 1 ( SAIDA_UNIDADE [1] $end
$var wire 1 ) SAIDA_UNIDADE [0] $end
$var wire 1 * SINAL $end

$scope module i1 $end
$var wire 1 + gnd $end
$var wire 1 , vcc $end
$var wire 1 - unknown $end
$var tri1 1 . devclrn $end
$var tri1 1 / devpor $end
$var tri1 1 0 devoe $end
$var wire 1 1 SINAL~output_o $end
$var wire 1 2 SAIDA[3]~output_o $end
$var wire 1 3 SAIDA[2]~output_o $end
$var wire 1 4 SAIDA[1]~output_o $end
$var wire 1 5 SAIDA[0]~output_o $end
$var wire 1 6 SAIDA_UNIDADE[3]~output_o $end
$var wire 1 7 SAIDA_UNIDADE[2]~output_o $end
$var wire 1 8 SAIDA_UNIDADE[1]~output_o $end
$var wire 1 9 SAIDA_UNIDADE[0]~output_o $end
$var wire 1 : In[5]~input_o $end
$var wire 1 ; In[4]~input_o $end
$var wire 1 < In[3]~input_o $end
$var wire 1 = In[2]~input_o $end
$var wire 1 > inst1|inst|inst17~0_combout $end
$var wire 1 ? In[1]~input_o $end
$var wire 1 @ inst1|inst|inst17~1_combout $end
$var wire 1 A inst10|inst5|inst17~0_combout $end
$var wire 1 B inst10|inst4|inst17~0_combout $end
$var wire 1 C In[0]~input_o $end
$var wire 1 D inst10|inst3|inst17~0_combout $end
$var wire 1 E inst10|inst3|inst17~1_combout $end
$var wire 1 F inst10|inst3|inst17~2_combout $end
$upscope $end
$upscope $end
$enddefinitions $end
#0
$dumpvars
b0 !
0%
0$
0#
0"
0)
0(
0'
0&
0*
0+
1,
x-
1.
1/
10
01
02
03
04
05
06
07
08
09
0:
0;
0<
0=
0>
0?
0@
0A
0B
0C
0D
0E
1F
$end
#10000
b1 !
1C
19
1)
#20000
b11 !
b10 !
1?
0C
09
0F
0)
18
1(
#30000
b11 !
1C
19
1)
#40000
b111 !
b101 !
b100 !
0?
1=
0C
09
1F
0)
1B
17
08
0(
1'
#50000
b101 !
1C
19
1)
#60000
b111 !
b110 !
1?
0C
09
0F
0)
18
1(
#70000
b111 !
1C
19
1)
#80000
b1111 !
b1011 !
b1001 !
b1000 !
0?
0=
1<
0C
09
1F
1D
0)
0B
1A
16
07
08
0(
0'
1&
#90000
b1001 !
1C
19
1)
#100000
b1011 !
b1010 !
1?
0C
09
0)
0A
1@
15
06
0&
1%
#110000
b1011 !
1C
19
1)
#120000
b1111 !
b1101 !
b1100 !
0?
1=
0C
09
1E
0D
0)
0F
18
1(
#130000
b1101 !
1C
19
1D
1)
#140000
b1111 !
b1110 !
1?
0C
09
1F
0D
0)
1B
17
08
0(
1'
#150000
b1111 !
1C
19
1D
1)
#160000
b11111 !
b10111 !
b10011 !
b10001 !
b10000 !
0?
0=
0<
1;
0C
09
0F
0)
18
1(
#170000
b10001 !
1C
19
1)
#180000
b10011 !
b10010 !
1?
0C
09
1F
0)
0B
1A
16
07
08
0(
0'
1&
#190000
b10011 !
1C
19
1)
#200000
b10111 !
b10101 !
b10100 !
0?
1=
0C
09
0F
0)
0A
0@
1>
14
05
06
18
1F
1(
0&
0%
1$
08
0(
#210000
b10101 !
1C
19
1)
#220000
b10111 !
b10110 !
1?
0C
09
0F
0)
18
1(
#230000
b10111 !
1C
19
1)
#240000
b11111 !
b11011 !
b11001 !
b11000 !
0?
0=
1<
0C
09
1F
0)
1B
17
08
0(
1'
#250000
b11001 !
1C
19
1)
#260000
b11011 !
b11010 !
1?
0C
09
0F
0)
18
1(
#270000
b11011 !
1C
19
1)
#280000
b11111 !
b11101 !
b11100 !
0?
1=
0C
09
1F
0D
0)
0B
1A
16
07
08
0(
0'
1&
#290000
b11101 !
1C
19
1)
#300000
b11111 !
b11110 !
1?
0C
09
0)
0A
1@
15
06
0&
1%
#310000
b11111 !
1C
19
1)
#320000
b111111 !
b101111 !
b100111 !
b100011 !
b100001 !
b100000 !
0?
0=
0<
0;
0C
1:
11
09
0E
0)
1*
0@
0>
04
05
0%
0$
#330000
b100001 !
1C
19
1)
#340000
b100011 !
b100010 !
1?
0C
09
0F
0)
18
1(
#350000
b100011 !
1C
19
1)
#360000
b100111 !
b100101 !
b100100 !
0?
1=
0C
09
1F
0)
1B
17
08
0(
1'
#370000
b100101 !
1C
19
1)
#380000
b100111 !
b100110 !
1?
0C
09
0F
0)
18
1(
#390000
b100111 !
1C
19
1)
#400000
b101111 !
b101011 !
b101001 !
b101000 !
0?
0=
1<
0C
09
1F
1D
0)
0B
1A
16
07
08
0(
0'
1&
#410000
b101001 !
1C
19
1)
#420000
b101011 !
b101010 !
1?
0C
09
0)
0A
1@
15
06
0&
1%
#430000
b101011 !
1C
19
1)
#440000
b101111 !
b101101 !
b101100 !
0?
1=
0C
09
1E
0D
0)
0F
18
1(
#450000
b101101 !
1C
19
1D
1)
#460000
b101111 !
b101110 !
1?
0C
09
1F
0D
0)
1B
17
08
0(
1'
#470000
b101111 !
1C
19
1D
1)
#480000
b111111 !
b110111 !
b110011 !
b110001 !
b110000 !
0?
0=
0<
1;
0C
09
0F
0)
18
1(
#490000
b110001 !
1C
19
1)
#500000
b110011 !
b110010 !
1?
0C
09
1F
0)
0B
1A
16
07
08
0(
0'
1&
#510000
b110011 !
1C
19
1)
#520000
b110111 !
b110101 !
b110100 !
0?
1=
0C
09
0F
0)
0A
0@
1>
14
05
06
18
1F
1(
0&
0%
1$
08
0(
#530000
b110101 !
1C
19
1)
#540000
b110111 !
b110110 !
1?
0C
09
0F
0)
18
1(
#550000
b110111 !
1C
19
1)
#560000
b111111 !
b111011 !
b111001 !
b111000 !
0?
0=
1<
0C
09
1F
0)
1B
17
08
0(
1'
#570000
b111001 !
1C
19
1)
#580000
b111011 !
b111010 !
1?
0C
09
0F
0)
18
1(
#590000
b111011 !
1C
19
1)
#600000
b111111 !
b111101 !
b111100 !
0?
1=
0C
09
1F
0D
0)
0B
1A
16
07
08
0(
0'
1&
#610000
b111101 !
1C
19
1)
#620000
b111111 !
b111110 !
1?
0C
09
0)
0A
1@
15
06
0&
1%
#630000
b111111 !
1C
19
1)
#640000
b11111 !
b1111 !
b111 !
b11 !
b1 !
b0 !
0?
0=
0<
0;
0C
0:
01
09
0E
0)
0*
0@
0>
04
05
0%
0$
#650000
b1 !
1C
19
1)
#660000
b11 !
b10 !
1?
0C
09
0F
0)
18
1(
#670000
b11 !
1C
19
1)
#680000
b111 !
b101 !
b100 !
0?
1=
0C
09
1F
0)
1B
17
08
0(
1'
#690000
b101 !
1C
19
1)
#700000
b111 !
b110 !
1?
0C
09
0F
0)
18
1(
#710000
b111 !
1C
19
1)
#720000
b1111 !
b1011 !
b1001 !
b1000 !
0?
0=
1<
0C
09
1F
1D
0)
0B
1A
16
07
08
0(
0'
1&
#730000
b1001 !
1C
19
1)
#740000
b1011 !
b1010 !
1?
0C
09
0)
0A
1@
15
06
0&
1%
#750000
b1011 !
1C
19
1)
#760000
b1111 !
b1101 !
b1100 !
0?
1=
0C
09
1E
0D
0)
0F
18
1(
#770000
b1101 !
1C
19
1D
1)
#780000
b1111 !
b1110 !
1?
0C
09
1F
0D
0)
1B
17
08
0(
1'
#790000
b1111 !
1C
19
1D
1)
#800000
b11111 !
b10111 !
b10011 !
b10001 !
b10000 !
0?
0=
0<
1;
0C
09
0F
0)
18
1(
#810000
b10001 !
1C
19
1)
#820000
b10011 !
b10010 !
1?
0C
09
1F
0)
0B
1A
16
07
08
0(
0'
1&
#830000
b10011 !
1C
19
1)
#840000
b10111 !
b10101 !
b10100 !
0?
1=
0C
09
0F
0)
0A
0@
1>
14
05
06
18
1F
1(
0&
0%
1$
08
0(
#850000
b10101 !
1C
19
1)
#860000
b10111 !
b10110 !
1?
0C
09
0F
0)
18
1(
#870000
b10111 !
1C
19
1)
#880000
b11111 !
b11011 !
b11001 !
b11000 !
0?
0=
1<
0C
09
1F
0)
1B
17
08
0(
1'
#890000
b11001 !
1C
19
1)
#900000
b11011 !
b11010 !
1?
0C
09
0F
0)
18
1(
#910000
b11011 !
1C
19
1)
#920000
b11111 !
b11101 !
b11100 !
0?
1=
0C
09
1F
0D
0)
0B
1A
16
07
08
0(
0'
1&
#930000
b11101 !
1C
19
1)
#940000
b11111 !
b11110 !
1?
0C
09
0)
0A
1@
15
06
0&
1%
#950000
b11111 !
1C
19
1)
#960000
b111111 !
b101111 !
b100111 !
b100011 !
b100001 !
b100000 !
0?
0=
0<
0;
0C
1:
11
09
0E
0)
1*
0@
0>
04
05
0%
0$
#970000
b100001 !
1C
19
1)
#980000
b100011 !
b100010 !
1?
0C
09
0F
0)
18
1(
#990000
b100011 !
1C
19
1)
