Projeto_Quartus/simulation/qsim/Projeto_Quartus.msim.vcd
$comment
	File created using the following command:
		vcd file Projeto_Quartus.msim.vcd -direction
$end
$date
	Fri Apr 17 14:17:53 2026
$end
$version
	ModelSim Version 2020.1
$end
$timescale
	1ps
$end

$scope module Main_vlg_vec_tst $end
$var reg 5 ! A [4:0] $end
$var reg 5 " B [4:0] $end
$var reg 3 # S [2:0] $end
$var wire 1 $ S_A [4] $end
$var wire 1 % S_A [3] $end
$var wire 1 & S_A [2] $end
$var wire 1 ' S_A [1] $end
$var wire 1 ( S_A [0] $end
$var wire 1 ) S_B [4] $end
$var wire 1 * S_B [3] $end
$var wire 1 + S_B [2] $end
$var wire 1 , S_B [1] $end
$var wire 1 - S_B [0] $end
$var wire 1 . S_F [5] $end
$var wire 1 / S_F [4] $end
$var wire 1 0 S_F [3] $end
$var wire 1 1 S_F [2] $end
$var wire 1 2 S_F [1] $end
$var wire 1 3 S_F [0] $end
$var wire 1 4 S_S [2] $end
$var wire 1 5 S_S [1] $end
$var wire 1 6 S_S [0] $end
$var wire 1 7 STATUS $end

$scope module i1 $end
$var wire 1 8 gnd $end
$var wire 1 9 vcc $end
$var wire 1 : unknown $end
$var tri1 1 ; devclrn $end
$var tri1 1 < devpor $end
$var tri1 1 = devoe $end
$var wire 1 > STATUS~output_o $end
$var wire 1 ? S_A[4]~output_o $end
$var wire 1 @ S_A[3]~output_o $end
$var wire 1 A S_A[2]~output_o $end
$var wire 1 B S_A[1]~output_o $end
$var wire 1 C S_A[0]~output_o $end
$var wire 1 D S_B[4]~output_o $end
$var wire 1 E S_B[3]~output_o $end
$var wire 1 F S_B[2]~output_o $end
$var wire 1 G S_B[1]~output_o $end
$var wire 1 H S_B[0]~output_o $end
$var wire 1 I S_F[5]~output_o $end
$var wire 1 J S_F[4]~output_o $end
$var wire 1 K S_F[3]~output_o $end
$var wire 1 L S_F[2]~output_o $end
$var wire 1 M S_F[1]~output_o $end
$var wire 1 N S_F[0]~output_o $end
$var wire 1 O S_S[2]~output_o $end
$var wire 1 P S_S[1]~output_o $end
$var wire 1 Q S_S[0]~output_o $end
$var wire 1 R S[1]~input_o $end
$var wire 1 S S[2]~input_o $end
$var wire 1 T S[0]~input_o $end
$var wire 1 U A[0]~input_o $end
$var wire 1 V B[0]~input_o $end
$var wire 1 W inst|inst2|inst8~combout $end
$var wire 1 X inst|inst|inst|inst17~7_combout $end
$var wire 1 Y A[1]~input_o $end
$var wire 1 Z B[3]~input_o $end
$var wire 1 [ A[3]~input_o $end
$var wire 1 \ B[1]~input_o $end
$var wire 1 ] inst|inst12|inst5|inst5~1_combout $end
$var wire 1 ^ B[2]~input_o $end
$var wire 1 _ A[2]~input_o $end
$var wire 1 ` A[4]~input_o $end
$var wire 1 a B[4]~input_o $end
$var wire 1 b inst|inst12|inst5|inst5~0_combout $end
$var wire 1 c inst|inst12|inst5|inst5~2_combout $end
$var wire 1 d inst|inst|inst|inst17~8_combout $end
$var wire 1 e inst|inst|inst|inst17~9_combout $end
$var wire 1 f inst|inst12|inst1~0_combout $end
$var wire 1 g inst|inst3|inst3~0_combout $end
$var wire 1 h inst|inst|inst|inst17~3_combout $end
$var wire 1 i inst|inst|inst|inst17~4_combout $end
$var wire 1 j inst|inst|inst|inst17~5_combout $end
$var wire 1 k inst|inst|inst|inst17~0_combout $end
$var wire 1 l inst|inst|inst|inst17~1_combout $end
$var wire 1 m inst|inst|inst|inst17~2_combout $end
$var wire 1 n inst|inst|inst|inst17~11_combout $end
$var wire 1 o inst|inst|inst|inst17~12_combout $end
$var wire 1 p inst|inst|inst|inst17~6_combout $end
$var wire 1 q inst|inst|inst|inst9~0_combout $end
$var wire 1 r inst|inst|inst|inst17~10_combout $end
$var wire 1 s inst|inst4|inst17~0_combout $end
$var wire 1 t inst|inst13|inst5~0_combout $end
$var wire 1 u inst|inst13|inst5~1_combout $end
$var wire 1 v inst|inst11|inst4|inst|inst3|inst2~combout $end
$var wire 1 w inst|inst11|inst4|inst|inst3|inst~0_combout $end
$var wire 1 x inst|inst13|inst3|inst|inst2|inst4~2_combout $end
$var wire 1 y inst|inst11|inst4|inst|inst2|inst~0_combout $end
$var wire 1 z inst|inst11|inst4|inst|inst2|inst2~combout $end
$var wire 1 { inst|inst11|inst4|inst|inst1|inst2~combout $end
$var wire 1 | inst|inst11|inst4|inst|inst1|inst~0_combout $end
$var wire 1 } inst|inst12|inst23~0_combout $end
$var wire 1 ~ inst|inst13|inst3|inst|inst1|inst4~2_combout $end
$var wire 1 !! inst|inst11|inst|inst2|inst3~0_combout $end
$var wire 1 "! inst|inst11|inst|inst3|inst3~0_combout $end
$var wire 1 #! inst|inst13|inst3|inst3|inst6~0_combout $end
$var wire 1 $! inst|inst13|inst3|inst|inst3|inst4~0_combout $end
$var wire 1 %! inst|inst11|inst|inst4|inst3~0_combout $end
$var wire 1 &! inst|inst13|inst16~0_combout $end
$var wire 1 '! inst|inst11|inst|inst7|inst4~0_combout $end
$var wire 1 (! inst|inst8|inst7|inst17~0_combout $end
$var wire 1 )! inst|inst8|inst7|inst17~1_combout $end
$var wire 1 *! inst|inst13|inst4|inst|inst3|inst~0_combout $end
$var wire 1 +! inst|inst13|inst4|inst|inst3|inst2~combout $end
$var wire 1 ,! inst|inst13|inst4|inst|inst2|inst2~combout $end
$var wire 1 -! inst|inst13|inst4|inst|inst1|inst2~combout $end
$var wire 1 .! inst|inst13|inst4|inst|inst1|inst~0_combout $end
$var wire 1 /! inst|inst13|inst|inst2|inst3~0_combout $end
$var wire 1 0! inst|inst13|inst4|inst|inst2|inst~0_combout $end
$var wire 1 1! inst|inst13|inst|inst3|inst3~0_combout $end
$var wire 1 2! inst|inst13|inst|inst4|inst3~0_combout $end
$var wire 1 3! inst|inst13|inst|inst7|inst4~0_combout $end
$var wire 1 4! inst|inst8|inst7|inst17~2_combout $end
$var wire 1 5! inst|inst8|inst7|inst17~3_combout $end
$var wire 1 6! inst|inst8|inst6|inst17~4_combout $end
$var wire 1 7! inst|inst13|inst|inst4|inst4~combout $end
$var wire 1 8! inst|inst13|inst|inst2|inst4~combout $end
$var wire 1 9! inst|inst13|inst|inst3|inst4~0_combout $end
$var wire 1 :! inst|inst8|inst6|inst17~10_combout $end
$var wire 1 ;! inst|inst8|inst6|inst17~5_combout $end
$var wire 1 <! inst|inst8|inst6|inst17~6_combout $end
$var wire 1 =! inst|inst11|inst|inst4|inst4~combout $end
$var wire 1 >! inst|inst8|inst6|inst17~7_combout $end
$var wire 1 ?! inst|inst11|inst|inst3|inst4~0_combout $end
$var wire 1 @! inst|inst11|inst|inst2|inst4~combout $end
$var wire 1 A! inst|inst8|inst6|inst17~11_combout $end
$var wire 1 B! inst|inst8|inst6|inst17~8_combout $end
$var wire 1 C! inst|inst8|inst6|inst17~9_combout $end
$var wire 1 D! inst|inst8|inst5|inst17~3_combout $end
$var wire 1 E! inst|inst8|inst5|inst17~4_combout $end
$var wire 1 F! inst|inst8|inst5|inst17~5_combout $end
$var wire 1 G! inst|inst8|inst5|inst17~2_combout $end
$var wire 1 H! inst|inst8|inst5|inst17~6_combout $end
$var wire 1 I! inst|inst8|inst5|inst17~8_combout $end
$var wire 1 J! inst|inst8|inst5|inst17~7_combout $end
$var wire 1 K! inst|inst8|inst4|inst17~7_combout $end
$var wire 1 L! inst|inst8|inst4|inst17~5_combout $end
$var wire 1 M! inst|inst8|inst4|inst17~3_combout $end
$var wire 1 N! inst|inst8|inst4|inst17~2_combout $end
$var wire 1 O! inst|inst8|inst4|inst17~4_combout $end
$var wire 1 P! inst|inst8|inst4|inst17~6_combout $end
$var wire 1 Q! inst|inst8|inst3|inst17~4_combout $end
$var wire 1 R! inst|inst8|inst3|inst17~5_combout $end
$var wire 1 S! inst|inst8|inst3|inst17~11_combout $end
$var wire 1 T! inst|inst8|inst3|inst17~10_combout $end
$var wire 1 U! inst|inst8|inst3|inst17~8_combout $end
$var wire 1 V! inst|inst8|inst3|inst17~6_combout $end
$var wire 1 W! inst|inst8|inst3|inst17~7_combout $end
$var wire 1 X! inst|inst8|inst3|inst17~9_combout $end
$var wire 1 Y! inst|inst8|inst|inst17~0_combout $end
$upscope $end
$upscope $end
$enddefinitions $end
#0
$dumpvars
b1000 !
b1000 "
b100 #
0(
0'
0&
1%
0$
0-
0,
0+
1*
0)
03
02
01
00
0/
0.
06
05
14
07
08
19
x:
1;
1<
1=
0>
0?
1@
0A
0B
0C
0D
1E
0F
0G
0H
0I
0J
0K
0L
0M
0N
1O
0P
0Q
0R
1S
0T
0U
0V
0W
0X
0Y
1Z
1[
0\
1]
0^
0_
0`
0a
1b
1c
0d
0e
0f
0g
0h
0i
0j
0k
0l
0m
0n
0o
0p
0q
0r
0s
0t
1u
0v
1w
0x
0y
0z
0{
0|
0}
0~
0!!
0"!
1#!
1$!
1%!
0&!
0'!
0(!
0)!
0*!
1+!
0,!
0-!
0.!
0/!
00!
01!
12!
03!
04!
05!
06!
07!
08!
09!
1:!
0;!
0<!
0=!
1>!
0?!
0@!
1A!
1B!
0C!
0D!
0E!
0F!
1G!
1H!
0I!
0J!
0K!
0L!
0M!
0N!
0O!
0P!
0Q!
0R!
0S!
0T!
0U!
0V!
1W!
0X!
0Y!
$end
#10000
b0 "
b1 "
1V
0Z
0E
1H
0A!
0:!
1-!
0u
1f
0c
1W
0+!
0w
1m
1j
0]
1-
0*
18!
1,!
1+!
17!
02!
1=!
0%!
1n
1T!
19!
07!
12!
1D!
16!
13!
1E!
0>!
1o
06!
03!
1F!
0T!
0B!
1p
1T!
1M!
0D!
0H!
1r
1s
1>
17
#20000
b101 "
b1101 "
b1100 "
0V
1^
1Z
1E
1F
0H
1A!
0-!
1u
0f
0W
0,!
0+!
1y
0b
1w
0m
0j
1]
0-
1+
1*
08!
1,!
09!
17!
02!
1?!
0=!
1%!
0n
0T!
0M!
1:!
19!
1D!
16!
13!
1N!
0A!
0E!
1>!
0o
1O!
1M!
0:!
0F!
1B!
0p
0D!
1H!
0r
0s
0>
07
#30000
b11000 !
b11100 "
b11000 "
0^
1a
1`
1?
1D
0F
0,!
0y
1v
1b
0>!
06!
03!
1*!
0w
1n
1&!
0+
1)
1$
09!
0?!
1c
0B!
1D!
07!
12!
1o
1>!
16!
13!
1'!
0M!
1:!
0N!
1A!
06!
03!
1E!
0O!
0D!
0E!
1B!
1F!
0F!
0H!
1H!
#40000
b10000 "
b10001 "
1V
0Z
0E
1H
1S!
0A!
0:!
1{
0u
1f
0c
1W
0*!
0v
1m
1j
0]
1-
0*
1U!
1E!
0B!
1@!
1z
1v
1p
1N!
17!
02!
1=!
0%!
0o
1F!
0S!
1?!
0=!
1%!
1r
1O!
1D!
16!
13!
0E!
0>!
0p
0H!
0U!
0N!
1E!
1B!
1>!
0F!
1T!
1M!
0D!
0r
1s
1>
0O!
1F!
0B!
1H!
17
0s
0>
0H!
07
#50000
b10101 "
b11101 "
b11100 "
0V
1^
1Z
1E
1F
0H
0T!
1S!
1:!
0{
1u
0f
0W
10!
0z
0v
0b
1*!
0m
0j
1]
0-
1+
1*
1U!
1D!
0@!
1z
0M!
19!
0?!
1=!
0%!
07!
12!
1o
0S!
1A!
1?!
1M!
0:!
0E!
0>!
0D!
1;!
06!
03!
1p
0U!
1E!
1B!
1N!
0A!
0;!
0F!
1r
1F!
1O!
0E!
1H!
1s
1>
0H!
0F!
17
1H!
#60000
b10000 !
b0 #
b0 !
b1100 "
b1000 "
b0 "
0^
0Z
0a
0S
0[
0`
0?
0@
0O
0D
0E
0F
0G!
00!
0z
1t
1b
0*!
1>!
16!
13!
0n
0W!
0H!
1q
0p
0&!
0$!
0+
0*
0)
04
0%
0$
1Y!
1P!
0s
0>
1L
1N
1H!
09!
0?!
0>!
03!
0'!
1c
02!
0B!
1D!
0o
0r
0=!
13
11
07
1C!
15!
1I
1J
0M!
1:!
0N!
1A!
0D!
1;!
06!
1/
1.
05!
0C!
0Y!
0N
0J
0I
0O!
0;!
0.
0/
03
0P!
0L
01
#70000
b100 #
1S
1O
1W!
1I!
0H!
0q
14
