Projeto_Quartus/simulation/qsim/Projeto_Quartus.msim.vcd
$comment
	File created using the following command:
		vcd file Projeto_Quartus.msim.vcd -direction
$end
$date
	Fri Apr 17 14:33:17 2026
$end
$version
	ModelSim Version 2020.1
$end
$timescale
	1ps
$end

$scope module Analisador_7seg_vlg_vec_tst $end
$var reg 6 ! In [5:0] $end
$var wire 1 " SAA $end
$var wire 1 # SAIDA [3] $end
$var wire 1 $ SAIDA [2] $end
$var wire 1 % SAIDA [1] $end
$var wire 1 & SAIDA [0] $end
$var wire 1 ' SBB $end
$var wire 1 ( SCC $end

$scope module i1 $end
$var wire 1 ) gnd $end
$var wire 1 * vcc $end
$var wire 1 + unknown $end
$var tri1 1 , devclrn $end
$var tri1 1 - devpor $end
$var tri1 1 . devoe $end
$var wire 1 / In[5]~input_o $end
$var wire 1 0 In[0]~input_o $end
$var wire 1 1 SAA~output_o $end
$var wire 1 2 SBB~output_o $end
$var wire 1 3 SCC~output_o $end
$var wire 1 4 SAIDA[3]~output_o $end
$var wire 1 5 SAIDA[2]~output_o $end
$var wire 1 6 SAIDA[1]~output_o $end
$var wire 1 7 SAIDA[0]~output_o $end
$var wire 1 8 In[4]~input_o $end
$var wire 1 9 In[3]~input_o $end
$var wire 1 : In[2]~input_o $end
$var wire 1 ; In[1]~input_o $end
$var wire 1 < inst2|inst3~0_combout $end
$var wire 1 = inst7|inst3~combout $end
$var wire 1 > inst9|inst3~0_combout $end
$var wire 1 ? inst1|inst|inst17~0_combout $end
$upscope $end
$upscope $end
$enddefinitions $end
#0
$dumpvars
b0 !
1"
0&
0%
0$
0#
1'
1(
0)
1*
x+
1,
1-
1.
0/
00
11
12
13
04
05
06
07
08
09
0:
0;
1<
1=
1>
0?
$end
#10000
b1 !
10
#20000
b11 !
b10 !
00
1;
#30000
b11 !
10
#40000
b111 !
b101 !
b100 !
00
0;
1:
#50000
b101 !
10
#60000
b111 !
b110 !
00
1;
#70000
b111 !
10
#80000
b1111 !
b1011 !
b1001 !
b1000 !
00
0;
0:
19
#90000
b1001 !
10
#100000
b1011 !
b1010 !
00
1;
1?
0>
03
17
1&
0(
#110000
b1011 !
10
#120000
b1111 !
b1101 !
b1100 !
00
0;
1:
#130000
b1101 !
10
#140000
b1111 !
b1110 !
00
1;
#150000
b1111 !
10
#160000
b11111 !
b10111 !
b10011 !
b10001 !
b10000 !
00
0;
0:
09
18
#170000
b10001 !
10
#180000
b10011 !
b10010 !
00
1;
#190000
b10011 !
10
#200000
b10111 !
b10101 !
b10100 !
00
0;
1:
0?
0=
16
02
07
0&
0'
1%
#210000
b10101 !
10
#220000
b10111 !
b10110 !
00
1;
#230000
b10111 !
10
#240000
b11111 !
b11011 !
b11001 !
b11000 !
00
0;
0:
19
#250000
b11001 !
10
#260000
b11011 !
b11010 !
00
1;
#270000
b11011 !
10
#280000
b11111 !
b11101 !
b11100 !
00
0;
1:
#290000
b11101 !
10
#300000
b11111 !
b11110 !
00
1;
1?
0<
01
17
1&
0"
#310000
b11111 !
10
#320000
b1111 !
b111 !
b11 !
b1 !
b0 !
00
0;
0:
09
08
0?
1>
1<
1=
06
12
11
13
07
0&
1(
1"
1'
0%
#330000
b1 !
10
#340000
b11 !
b10 !
00
1;
#350000
b11 !
10
#360000
b111 !
b101 !
b100 !
00
0;
1:
#370000
b101 !
10
#380000
b111 !
b110 !
00
1;
#390000
b111 !
10
#400000
b1111 !
b1011 !
b1001 !
b1000 !
00
0;
0:
19
#410000
b1001 !
10
#420000
b1011 !
b1010 !
00
1;
1?
0>
03
17
1&
0(
#430000
b1011 !
10
#440000
b1111 !
b1101 !
b1100 !
00
0;
1:
#450000
b1101 !
10
#460000
b1111 !
b1110 !
00
1;
#470000
b1111 !
10
#480000
b11111 !
b10111 !
b10011 !
b10001 !
b10000 !
00
0;
0:
09
18
#490000
b10001 !
10
#500000
b10011 !
b10010 !
00
1;
#510000
b10011 !
10
#520000
b10111 !
b10101 !
b10100 !
00
0;
1:
0?
0=
16
02
07
0&
0'
1%
#530000
b10101 !
10
#540000
b10111 !
b10110 !
00
1;
#550000
b10111 !
10
#560000
b11111 !
b11011 !
b11001 !
b11000 !
00
0;
0:
19
#570000
b11001 !
10
#580000
b11011 !
b11010 !
00
1;
#590000
b11011 !
10
#600000
b11111 !
b11101 !
b11100 !
00
0;
1:
#610000
b11101 !
10
#620000
b11111 !
b11110 !
00
1;
1?
0<
01
17
1&
0"
#630000
b11111 !
10
#640000
b1111 !
b111 !
b11 !
b1 !
b0 !
00
0;
0:
09
08
0?
1>
1<
1=
06
12
11
13
07
0&
1(
1"
1'
0%
#650000
b1 !
10
#660000
b11 !
b10 !
00
1;
#670000
b11 !
10
#680000
b111 !
b101 !
b100 !
00
0;
1:
#690000
b101 !
10
#700000
b111 !
b110 !
00
1;
#710000
b111 !
10
#720000
b1111 !
b1011 !
b1001 !
b1000 !
00
0;
0:
19
#730000
b1001 !
10
#740000
b1011 !
b1010 !
00
1;
1?
0>
03
17
1&
0(
#750000
b1011 !
10
#760000
b1111 !
b1101 !
b1100 !
00
0;
1:
#770000
b1101 !
10
#780000
b1111 !
b1110 !
00
1;
#790000
b1111 !
10
#800000
b11111 !
b10111 !
b10011 !
b10001 !
b10000 !
00
0;
0:
09
18
#810000
b10001 !
10
#820000
b10011 !
b10010 !
00
1;
#830000
b10011 !
10
#840000
b10111 !
b10101 !
b10100 !
00
0;
1:
0?
0=
16
02
07
0&
0'
1%
#850000
b10101 !
10
#860000
b10111 !
b10110 !
00
1;
#870000
b10111 !
10
#880000
b11111 !
b11011 !
b11001 !
b11000 !
00
0;
0:
19
#890000
b11001 !
10
#900000
b11011 !
b11010 !
00
1;
#910000
b11011 !
10
#920000
b11111 !
b11101 !
b11100 !
00
0;
1:
#930000
b11101 !
10
#940000
b11111 !
b11110 !
00
1;
1?
0<
01
17
1&
0"
#950000
b11111 !
10
#960000
b1111 !
b111 !
b11 !
b1 !
b0 !
00
0;
0:
09
08
0?
1>
1<
1=
06
12
11
13
07
0&
1(
1"
1'
0%
#970000
b1 !
10
#980000
b11 !
b10 !
00
1;
#990000
b11 !
10
